{
    "bench":
    {
        "regression": ["ISCED", "gender", "age", "risk", "patience", 
          "conscientiousness", "openness", "extraversion", "agreeableness", "stability", 
          "grit", "decision", "hostile",
          "literacy", "numeracy", "computer",
          "ses", "father_educ", "intact_family", "mother_educ", "parental_dummy", "mother_tongue", 
          "means_dummy", "children"],
        "exclusion": ["pct_rank_educ", "percent_active", "has_spouse"]
    },
    "wo_b5":
    {
        "regression": ["ISCED", "gender", "age", "risk", "patience",
          "grit", "decision", "hostile",
          "literacy", "numeracy", "computer", 
          "ses", "father_educ", "intact_family", "mother_educ", "parental_dummy", "mother_tongue", 
          "means_dummy", "children"],
        "exclusion": ["pct_rank_educ", "percent_active", "has_spouse"]
    }, 
    "econ":
    {
        "regression": ["ISCED", "gender", "age", "risk", "patience"],
        "exclusion": ["pct_rank_educ", "percent_active", "has_spouse"]
    }
}