{
    "m08":
    {
        "sector_variable": "sec_var",
        "nprobs": 1,
        "choice_model": "mprobit",
        "indep_spec": "bench",
        "npol": 4,
        "description": "Benchmark model estimated with mprobit, 1 probability and 4 polynomials"
    }, 
    "m10":
    {
        "sector_variable": "sec_var",
        "nprobs": "int",
        "choice_model": "mprobit",
        "indep_spec": "bench",
        "npol": 4,
        "description": "Benchmark model estimated with mprobit, 3 probabilities and 4 polynomials"
    }, 
    "m11":
    {
        "sector_variable": "sec_var",
        "nprobs": "int",
        "choice_model": "mprobit",
        "indep_spec": "wo_b5",
        "npol": 4,
        "description": "Model without Big 5 estimated with mprobit, 3 probabilities and 4 polynomials"
    }, 
    "m12":
    {
        "sector_variable": "sec_var",
        "nprobs": "all",
        "choice_model": "mprobit",
        "indep_spec": "bench",
        "npol": 4,
        "description": "Benchmark model estimated with mprobit, all probabilities and 4 polynomials"
    }
}
